<?xml version="1.0" encoding="utf-8"?>
<!-- Generator: Adobe Illustrator 22.1.0, SVG Export Plug-In . SVG Version: 6.00 Build 0)  -->
<svg version="1.1" id="Layer_1" xmlns="http://www.w3.org/2000/svg" xmlns:xlink="http://www.w3.org/1999/xlink" x="0px" y="0px"
	 viewBox="0 0 206.8 51.2" style="enable-background:new 0 0 206.8 51.2;" xml:space="preserve">
<style type="text/css">
	.st0{fill:#009286;}
	.st1{fill:#F3C000;}
	.st2{fill:#939393;}
</style>
<path class="st0" d="M0,0v32l19.2,19.2L28.8,32l9.6,0V0L0,0z"/>
<path class="st1" d="M19.2,51.2L38.4,32L19.2,12.8V51.2z"/>
<g>
	<path class="st2" d="M56.1,25.5l1.3-4.9h6.3l1.2,4.9h4.9l-6-22.2h-6.1l-6.2,22.2H56.1z M62.7,17.1h-4.4l2.1-9.6h0.1L62.7,17.1z"/>
	<path class="st2" d="M78.4,15.7h2.7c2.3,0,3.1,1.2,3.1,3.2c0,3.1-2.2,3.1-3.2,3.1h-2.6L78.4,15.7z M78.4,6.7h2.9
		c1.6,0,2.7,1.2,2.7,2.8c0,2.2-1.4,2.8-2.4,2.8h-3.1L78.4,6.7L78.4,6.7z M82,25.5c2,0,6.9-0.2,6.9-5.9c0-3-0.9-5.2-4.2-5.6v-0.1
		c2.5-0.5,3.8-2.3,3.8-4.9c0-4.7-2.9-5.8-6.5-5.8h-8.2v22.2L82,25.5L82,25.5z"/>
	<path class="st2" d="M98.6,25.5V9.2h0.1l6.1,16.2h6.1V3.3h-4.3v15.4h-0.1l-5.9-15.4h-6.3v22.2H98.6z"/>
	<path class="st2" d="M118.1,15.7l3-3l-3-3l-3,3L118.1,15.7z"/>
	<path class="st2" d="M127.2,25.5l1.3-4.9h6.3l1.2,4.9h4.9l-6-22.2h-6.1l-6.2,22.2H127.2z M133.8,17.1h-4.4l2.1-9.6h0.1L133.8,17.1z
		"/>
	<path class="st2" d="M149.3,25.5V8.3h0.1l4.1,17.1h4.4l4.3-17.1h0.1v17.1h4.5V3.3h-7.2l-3.7,15.1h-0.1l-3.5-15.1h-7.5v22.2H149.3z"
		/>
	<path class="st2" d="M177.4,6.7h2.1c1.5,0,2.4,0.8,2.4,2.9c0,1.4-0.5,3.3-2.4,3.3h-2.1V6.7z M177.4,16.3h1.2c3.6,0,3.3,2.2,3.3,4.9
		c0,1.4-0.1,3,0.5,4.3h4.6c-0.4-0.9-0.5-5.1-0.5-6.5c0-4-3-4.2-4-4.4v-0.1c3-0.5,4.1-2.6,4.1-5.4c0-3.8-2-5.8-5.2-5.8h-8.6v22.2h4.6
		L177.4,16.3z"/>
	<path class="st2" d="M199.1,22.5c-2.6,0-3-2.5-3-8.2s0.3-8.2,3-8.2c2.6,0,3,2.5,3,8.2C202.1,20.1,201.7,22.5,199.1,22.5z
		 M199.1,25.8c7.7,0,7.7-5.7,7.7-11.5c0-5.9,0-11.5-7.7-11.5s-7.7,5.6-7.7,11.5C191.5,20.2,191.5,25.8,199.1,25.8z"/>
</g>
</svg>
