<?xml version="1.0" encoding="iso-8859-1"?>
<!-- Generator: Adobe Illustrator 19.0.0, SVG Export Plug-In . SVG Version: 6.00 Build 0)  -->
<svg xmlns="http://www.w3.org/2000/svg" xmlns:xlink="http://www.w3.org/1999/xlink" version="1.1" id="Capa_1" x="0px" y="0px" viewBox="0 0 512 512" style="enable-background:new 0 0 512 512;" xml:space="preserve">
<rect y="85.337" style="fill:#338AF3;" width="512" height="341.326"/>
<polyline style="fill:#6DA544;" points="0,426.663 0,85.337 512,85.337 "/>
<polygon style="fill:#FFDA44;" points="512,152.222 512,85.337 411.67,85.337 0,359.778 0,426.663 100.33,426.663 "/>
<polygon points="512,85.337 512,125.462 60.193,426.663 0,426.663 0,386.538 451.807,85.337 "/>
</svg>
