<?xml version="1.0" encoding="iso-8859-1"?>
<!-- Generator: Adobe Illustrator 19.0.0, SVG Export Plug-In . SVG Version: 6.00 Build 0)  -->
<svg xmlns="http://www.w3.org/2000/svg" xmlns:xlink="http://www.w3.org/1999/xlink" version="1.1" id="Capa_1" x="0px" y="0px" viewBox="0 0 512 512" style="enable-background:new 0 0 512 512;" xml:space="preserve">
<rect y="85.337" style="fill:#496E2D;" width="512" height="341.326"/>
<rect y="85.337" style="fill:#F0F0F0;" width="512" height="113.775"/>
<rect y="312.888" style="fill:#D80027;" width="512" height="113.775"/>
</svg>
