<?xml version="1.0" encoding="iso-8859-1"?>
<!-- Generator: Adobe Illustrator 19.0.0, SVG Export Plug-In . SVG Version: 6.00 Build 0)  -->
<svg xmlns="http://www.w3.org/2000/svg" xmlns:xlink="http://www.w3.org/1999/xlink" version="1.1" id="Capa_1" x="0px" y="0px" viewBox="0 0 512 512" style="enable-background:new 0 0 512 512;" xml:space="preserve">
<rect y="85.339" style="fill:#F0F0F0;" width="512" height="341.326"/>
<rect y="85.339" width="512" height="113.775"/>
<rect y="312.89" style="fill:#6DA544;" width="512" height="113.775"/>
<polygon style="fill:#D80027;" points="256,256.006 0,426.669 0,85.331 "/>
<polygon style="fill:#F0F0F0;" points="77.913,224.802 85.789,241.271 103.575,237.161 95.61,253.587 109.913,264.93   92.105,268.944 92.154,287.199 77.913,275.778 63.672,287.199 63.722,268.944 45.913,264.93 60.216,253.587 52.251,237.161   70.037,241.271 "/>
</svg>
