<?xml version="1.0" encoding="iso-8859-1"?>
<!-- Generator: Adobe Illustrator 19.0.0, SVG Export Plug-In . SVG Version: 6.00 Build 0)  -->
<svg xmlns="http://www.w3.org/2000/svg" xmlns:xlink="http://www.w3.org/1999/xlink" version="1.1" id="Capa_1" x="0px" y="0px" viewBox="0 0 512 512" style="enable-background:new 0 0 512 512;" xml:space="preserve">
<polygon style="fill:#F0F0F0;" points="341.334,85.33 170.666,85.33 0,85.33 0,426.662 170.666,426.662 341.334,426.662   512,426.662 512,85.33 "/>
<rect y="85.333" style="fill:#6DA544;" width="170.663" height="341.337"/>
<rect x="341.337" y="85.333" style="fill:#D80027;" width="170.663" height="341.337"/>
</svg>
