<?xml version="1.0" encoding="iso-8859-1"?>
<!-- Generator: Adobe Illustrator 19.0.0, SVG Export Plug-In . SVG Version: 6.00 Build 0)  -->
<svg xmlns="http://www.w3.org/2000/svg" xmlns:xlink="http://www.w3.org/1999/xlink" version="1.1" id="Capa_1" x="0px" y="0px" viewBox="0 0 512 512" style="enable-background:new 0 0 512 512;" xml:space="preserve">
<rect y="85.337" style="fill:#6DA544;" width="512" height="341.326"/>
<polygon style="fill:#338AF3;" points="512,85.331 512,252.021 0,256.173 0,85.331 "/>
<polygon style="fill:#F0F0F0;" points="256,256.006 0,426.668 0,85.331 "/>
<polygon style="fill:#D80027;" points="94.608,211.478 105.658,245.488 141.422,245.488 112.49,266.51 123.54,300.522   94.608,279.502 65.675,300.522 76.728,266.51 47.795,245.488 83.557,245.488 "/>
</svg>
