<?xml version="1.0" encoding="iso-8859-1"?>
<!-- Generator: Adobe Illustrator 19.0.0, SVG Export Plug-In . SVG Version: 6.00 Build 0)  -->
<svg xmlns="http://www.w3.org/2000/svg" xmlns:xlink="http://www.w3.org/1999/xlink" version="1.1" id="Capa_1" x="0px" y="0px" viewBox="0 0 512 512" style="enable-background:new 0 0 512 512;" xml:space="preserve">
<rect y="85.337" style="fill:#F0F0F0;" width="512" height="341.326"/>
<g>
	<rect y="85.337" style="fill:#D80027;" width="512" height="68.263"/>
	<rect y="221.863" style="fill:#D80027;" width="512" height="68.263"/>
	<rect y="358.4" style="fill:#D80027;" width="512" height="68.263"/>
</g>
<polygon style="fill:#0052B4;" points="256,256.006 0,426.668 0,85.331 "/>
<polygon style="fill:#F0F0F0;" points="83.477,195.132 98.584,241.63 147.478,241.63 107.924,270.369 123.031,316.868   83.477,288.13 43.922,316.868 59.032,270.369 19.478,241.63 68.37,241.63 "/>
</svg>
