<?xml version="1.0" encoding="iso-8859-1"?>
<!-- Generator: Adobe Illustrator 19.0.0, SVG Export Plug-In . SVG Version: 6.00 Build 0)  -->
<svg xmlns="http://www.w3.org/2000/svg" xmlns:xlink="http://www.w3.org/1999/xlink" version="1.1" id="Capa_1" x="0px" y="0px" viewBox="0 0 512 512" style="enable-background:new 0 0 512 512;" xml:space="preserve">
<rect y="85.331" style="fill:#FFDA44;" width="512" height="341.326"/>
<rect x="330.207" y="85.331" style="fill:#6DA544;" width="181.793" height="341.337"/>
<rect y="85.331" style="fill:#D80027;" width="181.793" height="341.337"/>
</svg>
